…
This graph illustrates the spread of religions in our sample, and whether or not they support or oppose banning Muslims in the United States.

NAAS_clean %>% filter(!is.na(Ban_Muslim)) %>%
  group_by(Religion, Ban_Muslim) %>%
  summarise(n = n()) %>%
  mutate(freq = n / sum(n)) %>% as_tibble()

## # A tibble: 48 x 4
##    Religion                         Ban_Muslim     n  freq
##    <chr>                            <chr>      <int> <dbl>
##  1 African Methodist Episcopal/ AME Oppose         1 1    
##  2 Agnostic                         Oppose        13 1    
##  3 Atheist                          Oppose        76 0.717
##  4 Atheist                          Support       30 0.283
##  5 Baptist                          Oppose         7 0.412
##  6 Baptist                          Support       10 0.588
##  7 Buddhist                         Oppose       238 0.523
##  8 Buddhist                         Support      217 0.477
##  9 Catholic                         Oppose       267 0.694
## 10 Catholic                         Support      118 0.306
## # … with 38 more rows
…
